{
  "type": "service_account",
  "project_id": "mobilne-db",
  "private_key_id": "24a11a7530f52c5aedcdf67110d4c90ab54c39ba",
  "private_key": "-----BEGIN PRIVATE KEY-----\nMIIEvQIBADANBgkqhkiG9w0BAQEFAASCBKcwggSjAgEAAoIBAQDYmU1ndwEmowTF\ngPcc+Q8fvQgL3g2tHREXF00X74UOGn7fbw+Nj5+8hxZg7UAZ9iTFhN1mUYSuYkHg\nrrcXmZt0qp/nkjF8yviib51BjTDdhnq3Ki5MNwJEh3HFMl06dGAVtU4sLMu5wfVR\nhH4U7HGuBy36A0Qusgo694O/icYX04F4eBjvccxb0YpREZEG+ivmDtzrlFVyPWEF\ntpQLAzucxbAN3UUSAGpixaGd5im+FE+hK9c5SF+Vd75eUT/DjVcKRYiystfYfp7P\nRjZYeDkRjqDwYJ2QJnqOjNTMZc/3k51Rbi5j60ubJw7FO/SbB0rCeXQ80xCTdJCE\nb8YKQ3cPAgMBAAECggEAINEdVqtDq+BwJSJ0jlm37mWcFfw3Uz6/q6F2p0U9ghUG\nmwC/OQIFQDGxdM8NcsGF8b0/NDTupuMxOwMNr5Aw6vy9DH9saw1vnWDO0TM8r5uj\n9SN5b0e4WrywwqFuWaBvPGrDZNMGrObTrd2morHuSWFCGIqtJmwIO8XrmrYbotk7\n9LLWijMfJ6WuDuVXhMU1gB3Nj/s3iVBqEzSX/btNQ10wH08qzpWerIRJPqErC6GA\nDoG2ulmmGrtFAO6tMk7ejnmvgVCfoeUTEcM4wCIbTPJM2IjwPQ3r6rdT+SLkvJ4v\nuH0bQ7hfPkwVT+fO/EnOowg+7yKjxVAnx3W5D/NT0QKBgQDzKpCAZhs8yOsblAgx\njPMuWHhCPoibUiDQ9CWyxy16loL91tQVS4AI/UE4aEkVA9As3oEIPp9d+o60UDRB\n4PkWNwgFKoPnESLB0ffqqqwEp4g5WnHmt9+yOJVgFA7F9kJzpAjNkyVIHkBn8Mt8\n9Svwpvu951c28K6jOGE7XlefHwKBgQDkB8iZmv6VlkGKPuBKu3s4dL1gF6wGUpfx\nuhI40wg/ak7TqrldAMUo1zqNaMEEJ7Vj5dozxXMmOy+VwuPrpRaBlH5/SnVgrxsT\nGMGDk9bQzhGMNoHA4xMuXRN50BnwiE/0iV7WAs/3YQXBKowbtSaZFV70mZWbyV7P\ndvHYlF9aEQKBgAGh74ZtKRGnZ6yvub5ba+aLwYLwWIpyarX8baRdofiIuihqINJj\nx2BIEwAF8zeo5uTmOYeMpBVFcV/UigVHNWToyaz/NBOBEfKrLjbtHmqJlWiNKuaZ\npW7U4mvatp6toJSWLVjz+/QX/+ayvyr/mmPrOxVzUCqWQxXlcwGrCHuRAoGAOr4y\nlDeUjA6YNbf66eWgWavhOUb/3uUaFYCcvxzGTCfjxK1/cREIuXuwrsskpiBgnyqQ\narPb9SZcHNWHB6aQxLLvX3VcBZs2e1XuTCoitcnQRXGpPXqB73i00rWkaQ2Eo3dc\nAf/ZeV36MIf4bg7dsaQKwTJrkyVuEj4PEX8vjTECgYEAjz46PtxLWB/4pE6tm5Jh\nmXhoUUXRkWbeVY6rUmGBU3IONkgQfYsOqBD2gQ5/+s48tgjtRYcwQXzPJ72KMSSo\nnW0tabPs205dsubs57Wrcux05MO5iX2AnCx/1jnVdYkfVbgutSkWJQextSqet0A8\n+D0i7S2Ge5QScf9tqePPYaE=\n-----END PRIVATE KEY-----\n",
  "client_email": "firebase-adminsdk-cjmts@mobilne-db.iam.gserviceaccount.com",
  "client_id": "102145564213198455310",
  "auth_uri": "https://accounts.google.com/o/oauth2/auth",
  "token_uri": "https://oauth2.googleapis.com/token",
  "auth_provider_x509_cert_url": "https://www.googleapis.com/oauth2/v1/certs",
  "client_x509_cert_url": "https://www.googleapis.com/robot/v1/metadata/x509/firebase-adminsdk-cjmts%40mobilne-db.iam.gserviceaccount.com",
  "universe_domain": "googleapis.com"
}
